{
  "formatVersion": 1,
  "database": {
    "version": 1,
    "identityHash": "34e2ffa7f811e52cb5f44edd9d2c6214",
    "entities": [
      {
        "tableName": "Player",
        "createSql": "CREATE TABLE IF NOT EXISTS `${TABLE_NAME}` (`name` TEXT NOT NULL, PRIMARY KEY(`name`))",
        "fields": [
          {
            "fieldPath": "name",
            "columnName": "name",
            "affinity": "TEXT",
            "notNull": true
          }
        ],
        "primaryKey": {
          "columnNames": [
            "name"
          ],
          "autoGenerate": false
        },
        "indices": [],
        "foreignKeys": []
      },
      {
        "tableName": "Game",
        "createSql": "CREATE TABLE IF NOT EXISTS `${TABLE_NAME}` (`uid` INTEGER PRIMARY KEY AUTOINCREMENT NOT NULL, `player_name` TEXT, `isComplete` INTEGER, `score` INTEGER NOT NULL, FOREIGN KEY(`player_name`) REFERENCES `Player`(`name`) ON UPDATE NO ACTION ON DELETE CASCADE )",
        "fields": [
          {
            "fieldPath": "uid",
            "columnName": "uid",
            "affinity": "INTEGER",
            "notNull": true
          },
          {
            "fieldPath": "player_name",
            "columnName": "player_name",
            "affinity": "TEXT",
            "notNull": false
          },
          {
            "fieldPath": "isComplete",
            "columnName": "isComplete",
            "affinity": "INTEGER",
            "notNull": false
          },
          {
            "fieldPath": "score",
            "columnName": "score",
            "affinity": "INTEGER",
            "notNull": true
          }
        ],
        "primaryKey": {
          "columnNames": [
            "uid"
          ],
          "autoGenerate": true
        },
        "indices": [],
        "foreignKeys": [
          {
            "table": "Player",
            "onDelete": "CASCADE",
            "onUpdate": "NO ACTION",
            "columns": [
              "player_name"
            ],
            "referencedColumns": [
              "name"
            ]
          }
        ]
      }
    ],
    "views": [],
    "setupQueries": [
      "CREATE TABLE IF NOT EXISTS room_master_table (id INTEGER PRIMARY KEY,identity_hash TEXT)",
      "INSERT OR REPLACE INTO room_master_table (id,identity_hash) VALUES(42, \"34e2ffa7f811e52cb5f44edd9d2c6214\")"
    ]
  }
}